/home/ensai/Documents/3A/Genie Logiciel/springboot 4/Src/test/java/com/service/FileScanServiceTest.java
/home/ensai/Documents/3A/Genie Logiciel/springboot 4/Src/test/java/com/model/ScanTest.java
/home/ensai/Documents/3A/Genie Logiciel/springboot 4/Src/test/java/com/model/state/ScanTermineTest.java
/home/ensai/Documents/3A/Genie Logiciel/springboot 4/Src/test/java/com/model/state/EtatScanTest.java
/home/ensai/Documents/3A/Genie Logiciel/springboot 4/Src/test/java/com/model/FichierTest.java
/home/ensai/Documents/3A/Genie Logiciel/springboot 4/Src/test/java/com/service/ScanContextTest.java
/home/ensai/Documents/3A/Genie Logiciel/springboot 4/Src/test/java/com/model/state/ErreurScanTest.java
/home/ensai/Documents/3A/Genie Logiciel/springboot 4/Src/test/java/com/controller/ScanControllerTest.java
/home/ensai/Documents/3A/Genie Logiciel/springboot 4/Src/test/java/com/service/ScanServiceTest.java
/home/ensai/Documents/3A/Genie Logiciel/springboot 4/Src/test/java/com/controller/ScanControllerIntegrationTest.java
/home/ensai/Documents/3A/Genie Logiciel/springboot 4/Src/test/java/com/model/state/EnCoursDeScanTest.java
